<?xml version="1.0" encoding="utf-8"?>
<!-- Generator: Adobe Illustrator 21.1.0, SVG Export Plug-In . SVG Version: 6.00 Build 0)  -->
<svg version="1.1" id="Слой_1" xmlns="http://www.w3.org/2000/svg" xmlns:xlink="http://www.w3.org/1999/xlink" x="0px" y="0px"
	 viewBox="0 0 98 35" style="enable-background:new 0 0 98 35;" xml:space="preserve">
<style type="text/css">
	.st0{fill:#1D1D1B;}
</style>
<path class="st0" d="M1,1v4.9h10.5L0.7,15.6l0.6,0.6L12.7,5.9h10.9L0.7,27.6l0.6,0.6L24.8,5.9h11.4L10.9,30H1v4.9h96.5V1H1z
	 M64.6,5.9h12.8L52.8,30H40.5L64.6,5.9z M39.3,30h-13L50.7,5.9h12.7L39.3,30z M78.6,5.9h13.9L68.3,30H54L78.6,5.9z M37.4,5.9h12.2
	L25.2,30H12.1L37.4,5.9z M69.4,30L92.5,7v23H69.4z"/>
</svg>
