<?xml version="1.0" encoding="utf-8"?>
<!-- Generator: Adobe Illustrator 21.1.0, SVG Export Plug-In . SVG Version: 6.00 Build 0)  -->
<svg version="1.1" id="Слой_1" xmlns="http://www.w3.org/2000/svg" xmlns:xlink="http://www.w3.org/1999/xlink" x="0px" y="0px"
	 viewBox="0 0 75 68" style="enable-background:new 0 0 75 68;" xml:space="preserve">
<style type="text/css">
	.st0{clip-path:url(#SVGID_2_);}
</style>
<g>
	<g>
		<defs>
			<rect id="SVGID_1_" y="0" width="75" height="67.2"/>
		</defs>
		<clipPath id="SVGID_2_">
			<use xlink:href="#SVGID_1_"  style="overflow:visible;"/>
		</clipPath>
		<path class="st0" d="M0,5.4h12.9L0,18.3v1.2l14-14h17L0,36.4v1.2L32.2,5.5h15.3L0,53v1.1L48.6,5.5h16.1L7.9,62.3H0v4.9h75V0.5H0
			V5.4z M70,62.3H42l28-28V62.3z M70,33.1L40.9,62.3H25.6L70,17.8V33.1z M70,5.5v11.2L24.4,62.3H9.1L65.9,5.5H70z"/>
	</g>
</g>
</svg>
