<svg width="193" height="106" viewBox="0 0 193 106" fill="none" xmlns="http://www.w3.org/2000/svg">
<path d="M153.699 77.8681L172.257 88.261V7.24512H166.212L158.339 43.3298L153.699 77.8681Z" fill="black"/>
<path d="M151.72 36.4592L157.623 0L103.243 2.95664L99.3652 46.7915L151.72 36.4592Z" fill="black"/>
<path d="M164.207 92.7633L145.795 82.1136L150.914 47.6428L97.9767 54.3827L77.2793 66.9896L107.91 81.5867L107.645 100.658L164.086 101.443L164.207 92.7633Z" fill="black"/>
<path d="M70.4132 60.3779H70.4128H70.4132L90.2956 46.5213L94.4634 2.71289L11.7549 6.65985L15.0592 75.9063L62.0754 66.1885L70.4132 60.3779Z" fill="black"/>
<path d="M70.2563 72.3586L61.6514 77.7653L14.2256 85.2305V105.602H101.087V86.5287L70.2563 72.3586Z" fill="black"/>
<line x1="1.16703" y1="18.6671" x2="191.167" y2="85.3338" stroke="#EF1D26" stroke-width="7.0497"/>
</svg>
