<svg width="25" height="18" viewBox="0 0 25 18" fill="none" xmlns="http://www.w3.org/2000/svg">
<path d="M23.58 1.80544C22.7221 0.791017 21.138 0.376953 18.1129 0.376953H7.13178C4.03743 0.376953 2.42658 0.817719 1.57186 1.89773C0.738524 2.95074 0.738525 4.50182 0.738525 6.64917V10.7423C0.738525 14.9024 1.72727 17.0145 7.13178 17.0145H18.113C20.7364 17.0145 22.19 16.6495 23.1305 15.7543C24.0949 14.8363 24.5064 13.3373 24.5064 10.7423V6.64917C24.5064 4.3846 24.4419 2.82436 23.58 1.80544ZM15.9976 9.26048L11.0111 11.8529C10.8996 11.9109 10.7777 11.9394 10.656 11.9394C10.5181 11.9394 10.3805 11.9029 10.2587 11.8295C10.0293 11.6913 9.88925 11.4438 9.88925 11.177V6.00967C9.88925 5.74336 10.0289 5.49615 10.2579 5.35781C10.4869 5.21948 10.7717 5.20969 11.0093 5.33247L15.9958 7.90803C16.2495 8.03905 16.4089 8.29971 16.4092 8.58393C16.4095 8.86839 16.2509 9.12886 15.9976 9.26048Z" fill="white"/>
</svg>
